{
  "name": "@use-gpu/gltf",
  "version": "0.10.1",
  "main": "./cjs/index.js",
  "author": "Steven Wittens <steven@acko.net>",
  "license": "MIT",
  "dependencies": {
    "@use-gpu/workbench": "^0.10.1",
    "@use-gpu/core": "^0.10.1",
    "@use-gpu/live": "^0.10.1",
    "@use-gpu/shader": "^0.10.1",
    "@use-gpu/state": "^0.10.1",
    "mikktspace": "^1.1.1"
  },
  "keywords": [
    "use-gpu",
    "use-gpu-components"
  ],
  "sideEffects": false,
  "module": "./mjs/index.js"
}