{
  "name": "@use-gpu/wgsl-loader",
  "version": "0.10.1",
  "main": "./cjs/index.js",
  "author": "Steven Wittens <steven@acko.net>",
  "license": "MIT",
  "dependencies": {
    "@use-gpu/shader": "^0.10.1",
    "require-hacker": "^3.0.1"
  },
  "exports": {
    ".": {
      "types": "./mjs/index.d.ts",
      "import": "./mjs/index.js",
      "require": "./cjs/index.js"
    },
    "./node": {
      "types": "./mjs/node.d.ts",
      "import": "./mjs/node.js",
      "require": "./cjs/node.js"
    },
    "./rollup": {
      "types": "./mjs/rollup.d.ts",
      "import": "./mjs/rollup.js",
      "require": "./cjs/rollup.js"
    },
    "./webpack": {
      "types": "./mjs/webpack.d.ts",
      "import": "./mjs/webpack.js",
      "require": "./cjs/webpack.js"
    }
  },
  "bin": {
    "wgsl-tsgen": "./bin/wgsl-tsgen"
  },
  "devDependencies": {
    "@types/loader-utils": "^2.0.3",
    "@types/lodash": "^4.14.176",
    "@types/require-hacker": "^3.0.1"
  },
  "keywords": [
    "use-gpu",
    "use-gpu-loader"
  ],
  "module": "./mjs/index.js"
}